INDEX VERSION 1.127+E:\Trabajos\PROYECTO EMPRESARIAL\Examen\Proyecto\.metadata\.plugins\org.eclipse.jdt.core
603151544.index
2898261378.index
567897573.index
4039342660.index
3158849313.index
1636974028.index
2959774643.index
2248287622.index
559998128.index
4176816360.index
3397787586.index
497617415.index
1380373495.index
1768932184.index
174553.index
105210318.index
1811389807.index
1198961354.index
2095106283.index
3907532496.index
3491804422.index
4134526084.index
3452659912.index
1347255742.index
1973255203.index
1926144101.index
2634579158.index
1667022092.index
1406142747.index
4231911595.index
3679561638.index
2598878187.index
1387590729.index
3309653319.index
1067508780.index
532111209.index
516430836.index
3597191874.index
1598347546.index
3434210863.index
2810921867.index
2331805968.index
56856970.index
3090809040.index
863771791.index
151511248.index
265732991.index
3947960309.index
3175939560.index
4270962823.index
4155317798.index
2620426498.index
2223899147.index
874169263.index
1886995543.index
3795752727.index
3038630371.index
923375964.index
3125928.index
1294710048.index
2586260076.index
2401284510.index
238555203.index
2804169155.index
873227728.index
483861885.index
2048492988.index
251782801.index
2066483989.index
390835868.index
3968696362.index
