INDEX VERSION 1.3+E:\Trabajos\PROYECTO EMPRESARIAL\Examen\Proyecto\.metadata\.plugins\org.eclipse.wst.jsdt.core\indexes
342670133.index
1270691739.index
1792002427.index
2563414809.index
2810921867.index
238555203.index
1973255203.index
2717277413.index
